1008.7
1009.1
1009.7
1009.2
1008.9
1009.6
1010.3
1010.7
1010.5
1010.3
1010.7
1010.7
1011.1
1011
1011
1010.9
1010.6
1010.5
1010
1010
1010.1
1010.4
1010.4
1010.4
1010.5
1010.6
1010.6
1010.2
1010.2
1010.6
1010.8
1010.4
1010.2
1010.6
1010.6
1010.8
1010.5
1009.8
1009.4
1009.1
1009.2
1009.4
1009.5
1009.2
1009.1
1009.3
1009.6
1009.5
1009.3
1009.8
1010.1
1009.6
1009
1008.7
1008.7
1008.4
1008.4
1008.8
1008.3
1008.9
1008.9
1009.1
1009.2
1009.3
1009.5
1009.4
1009.4
1010.1
1010
1010.5
1010.7
1010.9
1010.4
1010.1
1010
1009.9
1009.6
1009.4
1009.4
1009.2
1009.2
1009.2
1009.4
1009.3
1009.7
1010.1
1010
1009.7
1009.4
1009.6
1009.2
1009.4
1009.7
1010
1009.5
1009.4
1009.1
1009.1
1009.3
1009.6
1009
1008.6
1008.7
1008.7
1008.9
1008.9
1008.8
1009
1009.1
1009.1
1009.2
1009
1009.2
1009.5
1009.6
1010.1
1009.9
1009.2
1009.3
1009.4
1009.4
1009.5
1008.6
1008.3
1008.4
1008.3
1008.2
1007.4
1008.1
1008.2
1008.2
1007.9
1007.4
1007.6
1008.3
1008.4
1008.8
1009.1
1009.1
1009
1009.1
1009.4
1008.8
1007.9
1007.8
1008.7
1009.1
1009.7
1009.2
1008.9
1009.6
1010.3
1010.7
1010.5
1010.3
1010.7
1010.7
1011.1
1011
1011
1010.9
1010.6
1010.5
1010
1010
1010.1
1010.4
1010.4
1010.4
1010.5
1010.6
1010.6
1010.2
1010.2
1010.6
1010.8
1010.4
1010.2
1010.6
1010.6
1010.8
1010.5
1009.8
1009.4
1009.1
1009.2
1009.4
1009.5
1009.2
1009.1
1009.3
1009.6
1009.5
1009.3
1009.8
1010.1
1009.6
1009
1008.7
1008.7
1008.4
1008.4
1008.8
1008.3
1008.9
1008.9
1009.1
1009.2
1009.3
1009.5
1009.4
1009.4
1010.1
1010
1010.5
1010.7
1010.9
1010.4
1010.1
1010
1009.9
1009.6
1009.4
1009.4
1009.2
1009.2
1009.2
1009.4
1009.3
1009.7
1010.1
1010
1009.7
1009.4
1009.6
1009.2
1009.4
1009.7
1010
1009.5
1009.4
1009.1
1009.1
1009.3
1009.6
1009
1008.6
1008.7
1008.7
1008.9
1008.9
1008.8
1009
1009.1
1009.1
1009.2
1009
1009.2
1009.5
1009.6
1010.1
1009.9
1009.2
1009.3
1009.4
1009.4
1009.5
1008.6
1008.3
1008.4
1008.3
1008.2
1007.4
1008.1
1008.2
1008.2
1007.9
1007.4
1007.6
1008.3
1008.4
1008.8
1009.1
1009.1
1009
1009.1
1009.4
1008.8
1007.9
1007.8
1008.2
1008.5
1008.7
1009.2
1009.4
1008.9
1009.1
1009.2
1009
1008.8
1008.5
1008.3
1008.5
1009.3
1009.7
1009.4
1009.3
1009.8
1010.1
1010.2
1009.7
1009.5
1009.6
1009.6
1009.1
1009.1
1009.4
1009.2
1009
1008.6
1008.9
1009.1
1009.5
1009.1
1008.8
1008.9
1008.9
1008.8
1009.5
1009.3
1009.3
1008.9
1009.3
1009.8
1009.6
1009.1
1009
1008.7
1008.4
1008.5
1009.2
1009.4
1009.4
1009.8
1009.9
1009.8
1010.1
1009.6
1009
1009
1009.1
1009.6
1009.7
1009.7
1010.1
1010.1
1009.6
1009.5
1009.7
1009.3
1009.5
1009.7
1009.2
1009.5
1009.1
1008.6
1009.1
1009.4
1009
1008.7
1009.5
1010.2
1009.8
1009.4
1009.2
1009.8
1010.6
1009.9
1009.8
1009.6
1009.4
1009.7
1009.8
1009.9
1010.2
1010.6
1010.6
1010.2
1009.9
1009.4
1009.1
1009.8
1010.5
1010.3
1009.7
1010.5
1010.4
1010.2
1009.8
1010.4
1010
1010.2
1009.8
1010.1
1010.2
1010.1
1010.7
1010.9
1010.6
1010.9
1009.8
1009.7
1009.9
1010.1
1009.8
1009.7
1009.2
1009.5
1009.5
1009.6
1009.6
1009.7
1010.6
1010.5
1010.2
1010
1009.8
1010.2
1010.6
1010.3
1010.3
1010.2
1010.2
1009.9
1009.4
1009.9
1009.8
1009.7
1009.6
1009.5
1009.3
1008.7
1008.9
1008.9
1009.1
1008.9
1008.7
1008.6
1008.6
1008.2
1008.2
1008.6
1009.2
1009.4
1009.3
1009.2
1008.9
1009.2
1008.8
1008.9
1009.5
1009.6
1009.8
1009.9
1009.9
1009.7
1009.6
1009.9
1009.8
1009.2
1008.8
1009
1009.2
1009.1
1008.5
1008.6
1009
1008.9
1008.5
1008.7
1009.2
1009.1
1009.3
1009
1009.1
1009.2
1009.3
1009.6
1009
1009.2
1008.8
1009.4
1009.7
1009.5
1009.6
1009.6
1010.1
1010.2
1009.9
1009.2
1008.5
1008.4
1008.7
1008.8
1008.7
1009
1009
1008.9
1009
1008.8
1008.7
1009.1
1009.7
1009.2
1008.9
1009.6
1010.3
1010.7
1010.5
1010.3
1010.7
1010.7
1011.1
1011
1011
1010.9
1010.6
1010.5
1010
1010
1010.1
1010.4
1010.4
1010.4
1010.5
1010.6
1010.6
1010.2
1010.2
1010.6
1010.8
1010.4
1010.2
1010.6
1010.6
1010.8
1010.5
1009.8
1009.4
1009.1
1009.2
1009.4
1009.5
1009.2
1009.1
1009.3
1009.6
1009.5
1009.3
1009.8
1010.1
1009.6
1009
1008.7
1008.7
1008.4
1008.4
1008.8
1008.3
1008.9
1008.9
1009.1
1009.2
1009.3
1009.5
1009.4
1009.4
1010.1
1010
1010.5
1010.7
1010.9
1010.4
1010.1
1010
1009.9
1009.6
1009.4
1009.4
1009.2
1009.2
1009.2
1009.4
1009.3
1009.7
1010.1
1010
1009.7
1009.4
1009.6
1009.2
1009.4
1009.7
1010
1009.5
1009.4
1009.1
1009.1
1009.3
1009.6
1009
1008.6
1008.7
1008.7
1008.9
1008.9
1008.8
1009
1009.1
1009.1
1009.2
1009
1009.2
1009.5
1009.6
1010.1
1009.9
1009.2
1009.3
1009.4
1009.4
1009.5
1008.6
1008.3
1008.4
1008.3
1008.2
1007.4
1008.1
1008.2
1008.2
1007.9
1007.4
1007.6
1008.3
1008.4
1008.8
1009.1
1009.1
1009
1009.1
1009.4
1008.8
1007.9
1007.8
1008.2
1008.5
1008.7
1009.2
1009.4
1008.9
1009.1
1009.2
1009
1008.8
1008.5
1008.3
1008.5
1009.3
1009.7
1009.4
1009.3
1009.8
1010.1
1010.2
1009.7
1009.5
1009.6
1009.6
1009.1
1009.1
1009.4
1009.2
1009
1008.6
1008.9
1009.1
1009.5
1009.1
1008.8
1008.9
1008.9
1008.8
1009.5
1009.3
1009.3
1008.9
1009.3
1009.8
1009.6
1009.1
1009
1008.7
1008.4
1008.5
1009.2
1009.4
1009.4
1009.8
1009.9
1009.8
1010.1
1009.6
1009
1009
1009.1
1009.6
1009.7
1009.7
1010.1
1010.1
1009.6
1009.5
1009.7
1009.3
1009.5
1009.7
1009.2
1009.5
1009.1
1008.6
1009.1
1009.4
1009
1008.7
1009.5
1010.2
1009.8
1009.4
1009.2
1009.8
1010.6
1009.9
1009.8
1009.6
1009.4
1009.7
1009.8
1009.9
1010.2
1010.6
1010.6
1010.2
1009.9
1009.4
1009.1
1009.8
1010.5
1010.3
1009.7
1010.5
1010.4
1010.2
1009.8
1010.4
1010
1010.2
1009.8
1010.1
1010.2
1010.1
1010.7
1010.9
1010.6
1010.9
1009.8
1009.7
1009.9
1010.1
1009.8
1009.7
1009.2
1009.5
1009.5
1009.6
1009.6
1009.7
1010.6
1010.5
1010.2
1010
1009.8
1010.2
1010.6
1010.3
1010.3
1010.2
1010.2
1009.9
1009.4
1009.9
1009.8
1009.7
1009.6
1009.5
1009.3
1008.7
1008.9
1008.9
1009.1
1008.9
1008.7
1008.6
1008.6
1008.2
1008.2
1008.6
1009.2
1009.4
1009.3
1009.2
1008.9
1009.2
1008.8
1008.9
1009.5
1009.6
1009.8
1009.9
1009.9
1009.7
1009.6
1009.9
1009.8
1009.2
1008.8
1009
1009.2
1009.1
1008.5
1008.6
1009
1008.9
1008.5
1008.7
1009.2
1009.1
1009.3
1009
1009.1
1009.2
1009.3
1009.6
1009
1009.2
1008.8
1009.4
1009.7
1009.5
1009.6
1009.6
1010.1
1010.2
1009.9
1009.2
1008.5
1008.4
1008.7
1008.8
1008.7
1009
1009
1008.9
1009
1008.8
